WTPipeline.vcd
$date
	Wed May 17 13:34:32 2023
$end
$version
	Icarus Verilog
$end
$timescale
	1s
$end
$scope module testbench $end
$var wire 16 ! y [15:0] $end
$var wire 16 " x [15:0] $end
$var wire 1 # rst $end
$var wire 1 $ r $end
$var wire 32 % pseudosuma [31:0] $end
$var wire 32 & pseudocarry [31:0] $end
$var wire 32 ' p [31:0] $end
$var wire 1 ( clk $end
$var wire 1 ) cboutnulo $end
$var wire 1 * cbout $end
$scope module suma $end
$var wire 1 + CBin $end
$var wire 16 , a [15:0] $end
$var wire 16 - b [15:0] $end
$var wire 16 . result [15:0] $end
$var wire 1 $ r $end
$var wire 1 / P85 $end
$var wire 1 0 P42 $end
$var wire 1 1 P1513 $end
$var wire 1 2 P129 $end
$var wire 1 3 P10 $end
$var wire 1 * CBout $end
$var wire 1 4 CB9in $end
$var wire 1 5 CB8out $end
$var wire 1 6 CB5in $end
$var wire 1 7 CB4out $end
$var wire 1 8 CB1out $end
$var wire 1 9 CB13in $end
$var wire 1 : CB12out $end
$scope module CarrySKip5 $end
$var wire 1 6 CBout $end
$var wire 1 0 P $end
$var wire 1 8 CBj $end
$var wire 1 7 CBin $end
$upscope $end
$scope module CarrySkip13 $end
$var wire 1 9 CBout $end
$var wire 1 2 P $end
$var wire 1 4 CBj $end
$var wire 1 : CBin $end
$upscope $end
$scope module CarrySkip9 $end
$var wire 1 6 CBj $end
$var wire 1 4 CBout $end
$var wire 1 / P $end
$var wire 1 5 CBin $end
$upscope $end
$scope module r1 $end
$var wire 1 + CBin $end
$var wire 1 3 P $end
$var wire 2 ; a [1:0] $end
$var wire 2 < b [1:0] $end
$var wire 2 = result [1:0] $end
$var wire 1 $ r $end
$var wire 1 > P1 $end
$var wire 1 ? P0 $end
$var wire 1 @ CBout0 $end
$var wire 1 8 CBout $end
$scope module FOp0 $end
$var wire 1 + CBin $end
$var wire 1 @ CBout $end
$var wire 1 A G $end
$var wire 1 ? P $end
$var wire 1 B W $end
$var wire 1 C X $end
$var wire 1 D Y $end
$var wire 1 E result $end
$var wire 1 $ R $end
$upscope $end
$scope module FOp1 $end
$var wire 1 @ CBin $end
$var wire 1 8 CBout $end
$var wire 1 F G $end
$var wire 1 > P $end
$var wire 1 G W $end
$var wire 1 H X $end
$var wire 1 I Y $end
$var wire 1 J result $end
$var wire 1 $ R $end
$upscope $end
$upscope $end
$scope module r2 $end
$var wire 1 8 CBin $end
$var wire 1 0 P $end
$var wire 3 K a [2:0] $end
$var wire 3 L b [2:0] $end
$var wire 3 M result [2:0] $end
$var wire 1 $ r $end
$var wire 1 N P2 $end
$var wire 1 O P1 $end
$var wire 1 P P0 $end
$var wire 1 Q CBout1 $end
$var wire 1 R CBout0 $end
$var wire 1 7 CBout $end
$scope module FOp0 $end
$var wire 1 8 CBin $end
$var wire 1 R CBout $end
$var wire 1 S G $end
$var wire 1 P P $end
$var wire 1 T W $end
$var wire 1 U X $end
$var wire 1 V Y $end
$var wire 1 W result $end
$var wire 1 $ R $end
$upscope $end
$scope module FOp1 $end
$var wire 1 R CBin $end
$var wire 1 Q CBout $end
$var wire 1 X G $end
$var wire 1 O P $end
$var wire 1 Y W $end
$var wire 1 Z X $end
$var wire 1 [ Y $end
$var wire 1 \ result $end
$var wire 1 $ R $end
$upscope $end
$scope module FOp2 $end
$var wire 1 Q CBin $end
$var wire 1 7 CBout $end
$var wire 1 ] G $end
$var wire 1 N P $end
$var wire 1 ^ W $end
$var wire 1 _ X $end
$var wire 1 ` Y $end
$var wire 1 a result $end
$var wire 1 $ R $end
$upscope $end
$upscope $end
$scope module r3 $end
$var wire 1 6 CBin $end
$var wire 1 / P $end
$var wire 4 b a [3:0] $end
$var wire 4 c b [3:0] $end
$var wire 4 d result [3:0] $end
$var wire 1 $ r $end
$var wire 1 e P3 $end
$var wire 1 f P2 $end
$var wire 1 g P1 $end
$var wire 1 h P0 $end
$var wire 1 i CBout2 $end
$var wire 1 j CBout1 $end
$var wire 1 k CBout0 $end
$var wire 1 5 CBout $end
$scope module FOp0 $end
$var wire 1 6 CBin $end
$var wire 1 k CBout $end
$var wire 1 l G $end
$var wire 1 h P $end
$var wire 1 m W $end
$var wire 1 n X $end
$var wire 1 o Y $end
$var wire 1 p result $end
$var wire 1 $ R $end
$upscope $end
$scope module FOp1 $end
$var wire 1 k CBin $end
$var wire 1 j CBout $end
$var wire 1 q G $end
$var wire 1 g P $end
$var wire 1 r W $end
$var wire 1 s X $end
$var wire 1 t Y $end
$var wire 1 u result $end
$var wire 1 $ R $end
$upscope $end
$scope module FOp2 $end
$var wire 1 j CBin $end
$var wire 1 i CBout $end
$var wire 1 v G $end
$var wire 1 f P $end
$var wire 1 w W $end
$var wire 1 x X $end
$var wire 1 y Y $end
$var wire 1 z result $end
$var wire 1 $ R $end
$upscope $end
$scope module FOp3 $end
$var wire 1 i CBin $end
$var wire 1 5 CBout $end
$var wire 1 { G $end
$var wire 1 e P $end
$var wire 1 | W $end
$var wire 1 } X $end
$var wire 1 ~ Y $end
$var wire 1 !" result $end
$var wire 1 $ R $end
$upscope $end
$upscope $end
$scope module r4 $end
$var wire 1 4 CBin $end
$var wire 1 2 P $end
$var wire 4 "" a [3:0] $end
$var wire 4 #" b [3:0] $end
$var wire 4 $" result [3:0] $end
$var wire 1 $ r $end
$var wire 1 %" P3 $end
$var wire 1 &" P2 $end
$var wire 1 '" P1 $end
$var wire 1 (" P0 $end
$var wire 1 )" CBout2 $end
$var wire 1 *" CBout1 $end
$var wire 1 +" CBout0 $end
$var wire 1 : CBout $end
$scope module FOp0 $end
$var wire 1 4 CBin $end
$var wire 1 +" CBout $end
$var wire 1 ," G $end
$var wire 1 (" P $end
$var wire 1 -" W $end
$var wire 1 ." X $end
$var wire 1 /" Y $end
$var wire 1 0" result $end
$var wire 1 $ R $end
$upscope $end
$scope module FOp1 $end
$var wire 1 +" CBin $end
$var wire 1 *" CBout $end
$var wire 1 1" G $end
$var wire 1 '" P $end
$var wire 1 2" W $end
$var wire 1 3" X $end
$var wire 1 4" Y $end
$var wire 1 5" result $end
$var wire 1 $ R $end
$upscope $end
$scope module FOp2 $end
$var wire 1 *" CBin $end
$var wire 1 )" CBout $end
$var wire 1 6" G $end
$var wire 1 &" P $end
$var wire 1 7" W $end
$var wire 1 8" X $end
$var wire 1 9" Y $end
$var wire 1 :" result $end
$var wire 1 $ R $end
$upscope $end
$scope module FOp3 $end
$var wire 1 )" CBin $end
$var wire 1 : CBout $end
$var wire 1 ;" G $end
$var wire 1 %" P $end
$var wire 1 <" W $end
$var wire 1 =" X $end
$var wire 1 >" Y $end
$var wire 1 ?" result $end
$var wire 1 $ R $end
$upscope $end
$upscope $end
$scope module r5 $end
$var wire 1 9 CBin $end
$var wire 1 1 P $end
$var wire 3 @" a [2:0] $end
$var wire 3 A" b [2:0] $end
$var wire 3 B" result [2:0] $end
$var wire 1 $ r $end
$var wire 1 C" P2 $end
$var wire 1 D" P1 $end
$var wire 1 E" P0 $end
$var wire 1 F" CBout1 $end
$var wire 1 G" CBout0 $end
$var wire 1 * CBout $end
$scope module FOp0 $end
$var wire 1 9 CBin $end
$var wire 1 G" CBout $end
$var wire 1 H" G $end
$var wire 1 E" P $end
$var wire 1 I" W $end
$var wire 1 J" X $end
$var wire 1 K" Y $end
$var wire 1 L" result $end
$var wire 1 $ R $end
$upscope $end
$scope module FOp1 $end
$var wire 1 G" CBin $end
$var wire 1 F" CBout $end
$var wire 1 M" G $end
$var wire 1 D" P $end
$var wire 1 N" W $end
$var wire 1 O" X $end
$var wire 1 P" Y $end
$var wire 1 Q" result $end
$var wire 1 $ R $end
$upscope $end
$scope module FOp2 $end
$var wire 1 F" CBin $end
$var wire 1 * CBout $end
$var wire 1 R" G $end
$var wire 1 C" P $end
$var wire 1 S" W $end
$var wire 1 T" X $end
$var wire 1 U" Y $end
$var wire 1 V" result $end
$var wire 1 $ R $end
$upscope $end
$upscope $end
$upscope $end
$scope module suma1 $end
$var wire 1 * CBin $end
$var wire 16 W" a [15:0] $end
$var wire 16 X" b [15:0] $end
$var wire 16 Y" result [15:0] $end
$var wire 1 $ r $end
$var wire 1 Z" P85 $end
$var wire 1 [" P42 $end
$var wire 1 \" P1513 $end
$var wire 1 ]" P129 $end
$var wire 1 ^" P10 $end
$var wire 1 ) CBout $end
$var wire 1 _" CB9in $end
$var wire 1 `" CB8out $end
$var wire 1 a" CB5in $end
$var wire 1 b" CB4out $end
$var wire 1 c" CB1out $end
$var wire 1 d" CB13in $end
$var wire 1 e" CB12out $end
$scope module CarrySKip5 $end
$var wire 1 a" CBout $end
$var wire 1 [" P $end
$var wire 1 c" CBj $end
$var wire 1 b" CBin $end
$upscope $end
$scope module CarrySkip13 $end
$var wire 1 d" CBout $end
$var wire 1 ]" P $end
$var wire 1 _" CBj $end
$var wire 1 e" CBin $end
$upscope $end
$scope module CarrySkip9 $end
$var wire 1 a" CBj $end
$var wire 1 _" CBout $end
$var wire 1 Z" P $end
$var wire 1 `" CBin $end
$upscope $end
$scope module r1 $end
$var wire 1 * CBin $end
$var wire 1 ^" P $end
$var wire 2 f" a [1:0] $end
$var wire 2 g" b [1:0] $end
$var wire 2 h" result [1:0] $end
$var wire 1 $ r $end
$var wire 1 i" P1 $end
$var wire 1 j" P0 $end
$var wire 1 k" CBout0 $end
$var wire 1 c" CBout $end
$scope module FOp0 $end
$var wire 1 * CBin $end
$var wire 1 k" CBout $end
$var wire 1 l" G $end
$var wire 1 j" P $end
$var wire 1 m" W $end
$var wire 1 n" X $end
$var wire 1 o" Y $end
$var wire 1 p" result $end
$var wire 1 $ R $end
$upscope $end
$scope module FOp1 $end
$var wire 1 k" CBin $end
$var wire 1 c" CBout $end
$var wire 1 q" G $end
$var wire 1 i" P $end
$var wire 1 r" W $end
$var wire 1 s" X $end
$var wire 1 t" Y $end
$var wire 1 u" result $end
$var wire 1 $ R $end
$upscope $end
$upscope $end
$scope module r2 $end
$var wire 1 c" CBin $end
$var wire 1 [" P $end
$var wire 3 v" a [2:0] $end
$var wire 3 w" b [2:0] $end
$var wire 3 x" result [2:0] $end
$var wire 1 $ r $end
$var wire 1 y" P2 $end
$var wire 1 z" P1 $end
$var wire 1 {" P0 $end
$var wire 1 |" CBout1 $end
$var wire 1 }" CBout0 $end
$var wire 1 b" CBout $end
$scope module FOp0 $end
$var wire 1 c" CBin $end
$var wire 1 }" CBout $end
$var wire 1 ~" G $end
$var wire 1 {" P $end
$var wire 1 !# W $end
$var wire 1 "# X $end
$var wire 1 ## Y $end
$var wire 1 $# result $end
$var wire 1 $ R $end
$upscope $end
$scope module FOp1 $end
$var wire 1 }" CBin $end
$var wire 1 |" CBout $end
$var wire 1 %# G $end
$var wire 1 z" P $end
$var wire 1 &# W $end
$var wire 1 '# X $end
$var wire 1 (# Y $end
$var wire 1 )# result $end
$var wire 1 $ R $end
$upscope $end
$scope module FOp2 $end
$var wire 1 |" CBin $end
$var wire 1 b" CBout $end
$var wire 1 *# G $end
$var wire 1 y" P $end
$var wire 1 +# W $end
$var wire 1 ,# X $end
$var wire 1 -# Y $end
$var wire 1 .# result $end
$var wire 1 $ R $end
$upscope $end
$upscope $end
$scope module r3 $end
$var wire 1 a" CBin $end
$var wire 1 Z" P $end
$var wire 4 /# a [3:0] $end
$var wire 4 0# b [3:0] $end
$var wire 4 1# result [3:0] $end
$var wire 1 $ r $end
$var wire 1 2# P3 $end
$var wire 1 3# P2 $end
$var wire 1 4# P1 $end
$var wire 1 5# P0 $end
$var wire 1 6# CBout2 $end
$var wire 1 7# CBout1 $end
$var wire 1 8# CBout0 $end
$var wire 1 `" CBout $end
$scope module FOp0 $end
$var wire 1 a" CBin $end
$var wire 1 8# CBout $end
$var wire 1 9# G $end
$var wire 1 5# P $end
$var wire 1 :# W $end
$var wire 1 ;# X $end
$var wire 1 <# Y $end
$var wire 1 =# result $end
$var wire 1 $ R $end
$upscope $end
$scope module FOp1 $end
$var wire 1 8# CBin $end
$var wire 1 7# CBout $end
$var wire 1 ># G $end
$var wire 1 4# P $end
$var wire 1 ?# W $end
$var wire 1 @# X $end
$var wire 1 A# Y $end
$var wire 1 B# result $end
$var wire 1 $ R $end
$upscope $end
$scope module FOp2 $end
$var wire 1 7# CBin $end
$var wire 1 6# CBout $end
$var wire 1 C# G $end
$var wire 1 3# P $end
$var wire 1 D# W $end
$var wire 1 E# X $end
$var wire 1 F# Y $end
$var wire 1 G# result $end
$var wire 1 $ R $end
$upscope $end
$scope module FOp3 $end
$var wire 1 6# CBin $end
$var wire 1 `" CBout $end
$var wire 1 H# G $end
$var wire 1 2# P $end
$var wire 1 I# W $end
$var wire 1 J# X $end
$var wire 1 K# Y $end
$var wire 1 L# result $end
$var wire 1 $ R $end
$upscope $end
$upscope $end
$scope module r4 $end
$var wire 1 _" CBin $end
$var wire 1 ]" P $end
$var wire 4 M# a [3:0] $end
$var wire 4 N# b [3:0] $end
$var wire 4 O# result [3:0] $end
$var wire 1 $ r $end
$var wire 1 P# P3 $end
$var wire 1 Q# P2 $end
$var wire 1 R# P1 $end
$var wire 1 S# P0 $end
$var wire 1 T# CBout2 $end
$var wire 1 U# CBout1 $end
$var wire 1 V# CBout0 $end
$var wire 1 e" CBout $end
$scope module FOp0 $end
$var wire 1 _" CBin $end
$var wire 1 V# CBout $end
$var wire 1 W# G $end
$var wire 1 S# P $end
$var wire 1 X# W $end
$var wire 1 Y# X $end
$var wire 1 Z# Y $end
$var wire 1 [# result $end
$var wire 1 $ R $end
$upscope $end
$scope module FOp1 $end
$var wire 1 V# CBin $end
$var wire 1 U# CBout $end
$var wire 1 \# G $end
$var wire 1 R# P $end
$var wire 1 ]# W $end
$var wire 1 ^# X $end
$var wire 1 _# Y $end
$var wire 1 `# result $end
$var wire 1 $ R $end
$upscope $end
$scope module FOp2 $end
$var wire 1 U# CBin $end
$var wire 1 T# CBout $end
$var wire 1 a# G $end
$var wire 1 Q# P $end
$var wire 1 b# W $end
$var wire 1 c# X $end
$var wire 1 d# Y $end
$var wire 1 e# result $end
$var wire 1 $ R $end
$upscope $end
$scope module FOp3 $end
$var wire 1 T# CBin $end
$var wire 1 e" CBout $end
$var wire 1 f# G $end
$var wire 1 P# P $end
$var wire 1 g# W $end
$var wire 1 h# X $end
$var wire 1 i# Y $end
$var wire 1 j# result $end
$var wire 1 $ R $end
$upscope $end
$upscope $end
$scope module r5 $end
$var wire 1 d" CBin $end
$var wire 1 \" P $end
$var wire 3 k# a [2:0] $end
$var wire 3 l# b [2:0] $end
$var wire 3 m# result [2:0] $end
$var wire 1 $ r $end
$var wire 1 n# P2 $end
$var wire 1 o# P1 $end
$var wire 1 p# P0 $end
$var wire 1 q# CBout1 $end
$var wire 1 r# CBout0 $end
$var wire 1 ) CBout $end
$scope module FOp0 $end
$var wire 1 d" CBin $end
$var wire 1 r# CBout $end
$var wire 1 s# G $end
$var wire 1 p# P $end
$var wire 1 t# W $end
$var wire 1 u# X $end
$var wire 1 v# Y $end
$var wire 1 w# result $end
$var wire 1 $ R $end
$upscope $end
$scope module FOp1 $end
$var wire 1 r# CBin $end
$var wire 1 q# CBout $end
$var wire 1 x# G $end
$var wire 1 o# P $end
$var wire 1 y# W $end
$var wire 1 z# X $end
$var wire 1 {# Y $end
$var wire 1 |# result $end
$var wire 1 $ R $end
$upscope $end
$scope module FOp2 $end
$var wire 1 q# CBin $end
$var wire 1 ) CBout $end
$var wire 1 }# G $end
$var wire 1 n# P $end
$var wire 1 ~# W $end
$var wire 1 !$ X $end
$var wire 1 "$ Y $end
$var wire 1 #$ result $end
$var wire 1 $ R $end
$upscope $end
$upscope $end
$upscope $end
$scope module t1 $end
$var wire 1 ) cin $end
$var wire 32 $$ p [31:0] $end
$var reg 1 ( clk $end
$var reg 1 %$ in $end
$var reg 1 $ r $end
$var reg 1 # rst $end
$var reg 16 &$ x [15:0] $end
$var reg 16 '$ y [15:0] $end
$upscope $end
$scope module wtp $end
$var wire 16 ($ X [15:0] $end
$var wire 16 )$ Y [15:0] $end
$var wire 1 ( clk $end
$var wire 1 # rst $end
$var reg 32 *$ A [31:0] $end
$var reg 32 +$ B [31:0] $end
$var reg 32 ,$ C [31:0] $end
$var reg 32 -$ D [31:0] $end
$var reg 32 .$ E [31:0] $end
$var reg 32 /$ F [31:0] $end
$var reg 32 0$ G [31:0] $end
$var reg 32 1$ H [31:0] $end
$var reg 16 2$ multiplicador [15:0] $end
$var reg 32 3$ operando1 [31:0] $end
$var reg 32 4$ operando2 [31:0] $end
$var reg 32 5$ operando3 [31:0] $end
$var reg 32 6$ operando4 [31:0] $end
$var reg 32 7$ ordenOperandos [31:0] $end
$var reg 32 8$ pseudocarry [31:0] $end
$var reg 32 9$ pseudosuma [31:0] $end
$upscope $end
$upscope $end
$enddefinitions $end
#0
$dumpvars
b0 9$
b0 8$
b11001011 7$
bx 6$
bx 5$
bx 4$
bx 3$
b1011100001000 2$
b0 1$
b0 0$
b0 /$
b0 .$
b0 -$
b0 ,$
b0 +$
b0 *$
b1011100001000 )$
b11001011 ($
b1011100001000 '$
b11001011 &$
0%$
b0 $$
0#$
0"$
0!$
0~#
0}#
0|#
0{#
0z#
0y#
0x#
0w#
0v#
0u#
0t#
0s#
0r#
0q#
0p#
0o#
0n#
b0 m#
b0 l#
b0 k#
0j#
0i#
0h#
0g#
0f#
0e#
0d#
0c#
0b#
0a#
0`#
0_#
0^#
0]#
0\#
0[#
0Z#
0Y#
0X#
0W#
0V#
0U#
0T#
0S#
0R#
0Q#
0P#
b0 O#
b0 N#
b0 M#
0L#
0K#
0J#
0I#
0H#
0G#
0F#
0E#
0D#
0C#
0B#
0A#
0@#
0?#
0>#
0=#
0<#
0;#
0:#
09#
08#
07#
06#
05#
04#
03#
02#
b0 1#
b0 0#
b0 /#
0.#
0-#
0,#
0+#
0*#
0)#
0(#
0'#
0&#
0%#
0$#
0##
0"#
0!#
0~"
0}"
0|"
0{"
0z"
0y"
b0 x"
b0 w"
b0 v"
0u"
0t"
0s"
0r"
0q"
0p"
0o"
0n"
0m"
0l"
0k"
0j"
0i"
b0 h"
b0 g"
b0 f"
0e"
0d"
0c"
0b"
0a"
0`"
0_"
0^"
0]"
0\"
0["
0Z"
b0 Y"
b0 X"
b0 W"
0V"
0U"
0T"
0S"
0R"
0Q"
0P"
0O"
0N"
0M"
0L"
0K"
0J"
0I"
0H"
0G"
0F"
0E"
0D"
0C"
b0 B"
b0 A"
b0 @"
0?"
0>"
0="
0<"
0;"
0:"
09"
08"
07"
06"
05"
04"
03"
02"
01"
00"
0/"
0."
0-"
0,"
0+"
0*"
0)"
0("
0'"
0&"
0%"
b0 $"
b0 #"
b0 ""
0!"
0~
0}
0|
0{
0z
0y
0x
0w
0v
0u
0t
0s
0r
0q
0p
0o
0n
0m
0l
0k
0j
0i
0h
0g
0f
0e
b0 d
b0 c
b0 b
0a
0`
0_
0^
0]
0\
0[
0Z
0Y
0X
0W
0V
0U
0T
0S
0R
0Q
0P
0O
0N
b0 M
b0 L
b0 K
0J
0I
0H
0G
0F
0E
0D
0C
0B
0A
0@
0?
0>
b0 =
b0 <
b0 ;
0:
09
08
07
06
05
04
03
02
01
00
0/
b0 .
b0 -
b0 ,
0+
0*
0)
0(
b0 '
b0 &
b0 %
0$
0#
b11001011 "
b1011100001000 !
$end
#1
1O
1\
1N
b110 M
1a
1g
b10 d
1u
1("
10"
1'"
b11001011000 '
b11001011000 $$
b11001011000 .
b11 $"
15"
1Y
1^
1r
1-"
12"
1Z
1_
1s
1."
13"
b110 K
b10 b
b11 ""
b11001011000 ,
b11001011000 %
b11001011000 9$
b11001011000 /$
b11001011000 -$
b11001011000 6$
b0 5$
b0 4$
b101110000 2$
b110010110000 7$
b0 3$
1(
#2
0(
#3
b0 6$
b10111 2$
b1100101100000000 7$
1(
#4
0(
#5
1V"
1F"
1?"
1)"
1G"
1j"
b1 h"
1p"
1e
b1010 d
1!"
0'"
b1001 $"
05"
16"
1H"
1D"
b1001001101011000 .
b100 B"
0Q"
b1011001001101011000 '
b1011001001101011000 $$
b101 Y"
b1 x"
1$#
1m"
1|
02"
17"
1I"
1N"
1{"
0&"
0E"
1n"
1}
03"
18"
1J"
1O"
1##
19"
1K"
b1 f"
b1010 b
b101 ""
b11 @"
b1 w"
b100 #"
b1 A"
b1 W"
b110101101011000 ,
b100 X"
b10100000000000 -
b10110101101011000 %
b10110101101011000 9$
b1000010100000000000 &
b1000010100000000000 8$
b100111011101011000 /$
b100111000100000000 +$
b110001110000000000 *$
b110010110000000000 5$
b11001011000000000 4$
b1 2$
b11001011000000000000 7$
b1100101100000000 3$
1(
#6
0(
#7
0V"
0F"
1u"
b1 $"
0?"
b100001101011000 .
b10 B"
1Q"
1k"
b10 h"
0p"
0$#
b100100100001101011000 '
b100100100001101011000 $$
b10010 Y"
b100 x"
1.#
0)"
0G"
07"
0I"
0N"
1l"
0j"
0{"
1y"
06"
0&"
0H"
0E"
0M"
1D"
08"
0J"
0O"
1o"
0##
1-#
09"
0K"
1P"
b1 ""
b0 @"
b1 g"
b100 w"
b0 #"
b10 A"
b1101011000 ,
b10001 X"
b100000000000000 -
b10000001101011000 %
b10000001101011000 9$
b100010100000000000000 &
b100010100000000000000 8$
b10011010001101011000 /$
b10001010000000000000 .$
b1010100001101011000 -$
b101000000000000 ,$
b11001011000000000000 +$
b0 *$
b0 5$
b0 4$
b0 2$
b110010110000000000000000 7$
b11001011000000000000 3$
1(
#8
0(
#9
b0 h"
0u"
0k"
b0 Y"
b0 x"
0.#
b0 B"
0Q"
0e
b10 d
0!"
1'"
b11001011000 '
b11001011000 $$
b11001011000 .
b11 $"
15"
0l"
0y"
0D"
0m"
0|
12"
0o"
0-#
0P"
0n"
0}
13"
b0 g"
b0 w"
b0 A"
b0 f"
b10 b
b11 ""
b0 X"
b0 -
b0 W"
b11001011000 ,
b11001011000 6$
b0 3$
b11001011000 /$
b0 .$
b11001011000 -$
b0 ,$
b0 +$
b0 &
b0 8$
b11001011000 %
b11001011000 9$
b101110000 2$
b110010110000 7$
1(
1#
#10
0O
0\
0N
b0 M
0a
0g
b0 d
0u
0("
00"
0'"
b0 '
b0 $$
b0 .
b0 $"
05"
0Y
0^
0r
0-"
02"
0Z
0_
0s
0."
03"
b0 K
b0 b
b0 ""
b0 ,
b0 /$
b0 -$
b0 %
b0 9$
b10010 2$
b100110110101 7$
0(
b10010 !
b10010 '$
b10010 )$
b100110110101 "
b100110110101 &$
b100110110101 ($
0#
#11
1>
b10 =
1J
1O
b10 M
1\
1h
1p
1g
1u
1e
b1011 d
1!"
1("
10"
1%"
b1001101101010 '
b1001101101010 $$
b1001101101010 .
b1001 $"
1?"
1G
1Y
1m
1r
1|
1-"
1<"
1H
1Z
1n
1s
1}
1."
1="
b10 ;
b10 K
b1011 b
b1001 ""
b1001101101010 ,
b1001101101010 %
b1001101101010 9$
b1001101101010 /$
b1001101101010 +$
b0 6$
b1001101101010 4$
b1 2$
b1001101101010000 7$
1(
#12
0(
#13
1N
b110 M
1a
0g
0u
1f
1z
0e
b101 d
0!"
1'"
15"
1&"
1:"
0%"
b111 $"
0?"
1E"
1L"
1C"
b1010111010111010 '
b1010111010111010 $$
b1010111010111010 .
b101 B"
1V"
1^
0r
1w
0|
12"
17"
0<"
1I"
1S"
1_
0s
1x
0}
13"
18"
0="
1J"
1T"
b110 K
b101 b
b111 ""
b101 @"
b1010111010111010 ,
b1010111010111010 %
b1010111010111010 9$
b1000100000111010 /$
b10011010000000 .$
b1001101101010 -$
b1001101101010000 +$
b0 4$
b0 2$
b10011011010100000000 7$
b1001101101010000 3$
1(
#14
0(
#15
b1010111010111010 /$
b0 .$
b1010111010111010 -$
b0 +$
b100110110101000000000000 7$
b0 3$
1(
#16
0(
#17
b1001101101010000000000000000 7$
1(
#18
0(
#19
02
0N
b10 M
0a
1g
1u
0f
0z
1e
b1011 d
1!"
0'"
05"
0&"
0:"
1%"
b1001 $"
1?"
0E"
0L"
0C"
b1001101101010 '
b1001101101010 $$
b1001101101010 .
b0 B"
0V"
0^
1r
0w
1|
02"
07"
1<"
0I"
0S"
0_
1s
0x
1}
03"
08"
1="
0J"
0T"
b10 K
b1011 b
b1001 ""
b0 @"
b1001101101010 ,
b1001101101010 +$
b1001101101010 4$
b1001101101010 /$
b0 -$
b1001101101010 %
b1001101101010 9$
b1 2$
b1001101101010000 7$
1(
1#
#20
0>
b0 =
0J
0O
b0 M
0\
0h
0p
0g
0u
0e
b0 d
0!"
0("
00"
0%"
b0 '
b0 $$
b0 .
b0 $"
0?"
0G
0Y
0m
0r
0|
0-"
0<"
0H
0Z
0n
0s
0}
0."
0="
b0 ;
b0 K
b0 b
b0 ""
b0 ,
b0 /$
b0 +$
b0 %
b0 9$
b100110101011 2$
b1010110110111 7$
0(
b100110101011 !
b100110101011 '$
b100110101011 )$
b1010110110111 "
b1010110110111 &$
b1010110110111 ($
0#
#21
10
11
1?
b1 =
1E
1P
1W
1O
1\
1N
b111 M
1a
1&"
1:"
1D"
1Q"
1C"
1V"
1u
b110 d
1z
10"
b111 $"
15"
b1110111011011101 '
b1110111011011101 $$
b1110111011011101 .
b111 B"
1L"
1B
1T
1Y
1^
17"
1N"
1S"
1g
1f
1("
1'"
1E"
1C
1U
1Z
1_
18"
1O"
1T"
1t
1y
1/"
14"
1K"
b1 ;
b111 K
b100 ""
b110 @"
b110 c
b11 #"
b1 A"
b1100100000011101 ,
b10011011000000 -
b1100100000011101 %
b1100100000011101 9$
b10011011000000 &
b10011011000000 8$
b1001001101100001 /$
b101100100110000 .$
b1010110110111000 -$
b11111011011001 +$
b1001001100 *$
b1010110110111000 6$
b10101101101110 4$
b10011010 2$
b10101101101110000 7$
b1010110110111 3$
1(
#22
0(
#23
1F"
0Q"
1G"
0L"
19
1:
1)"
0:"
1*"
01
1{"
1$#
1z"
b11 x"
1)#
1h
1p
11"
0'"
05"
1%"
0?"
0C"
b100 B"
1V"
b1110 Y"
b10 h"
1u"
0u
0z
b1001 d
1!"
b11101000000100111101 '
b11101000000100111101 $$
b1000000100111101 .
b0 $"
00"
1!#
1&#
1m
12"
1<"
1I"
0S"
1i"
0g
0f
1e
0("
1E"
1"#
1'#
1n
13"
1="
1J"
0T"
1t"
0t
0y
1~
0/"
0K"
b11 v"
b1 b
b1110 ""
b11 @"
b10 g"
b1000 c
b10 #"
b0 A"
b1100 W"
b111110000111101 ,
b10 X"
b10100000000 -
b11000111110000111101 %
b11000111110000111101 9$
b100000010100000000 &
b100000010100000000 8$
b10010001011010111101 /$
b1010110101010000000 .$
b10100011010101011101 -$
b11001010100000000 ,$
b101011011011100000 +$
b0 *$
b10101101101110000000 6$
b101011011011100000 4$
b1001 2$
b101011011011100000000 7$
b0 3$
1(
#24
0(
#25
0F"
1Q"
0G"
1L"
0k"
09
1.#
0:
0*
1|"
11
0)#
1j"
1p"
13#
1G#
0%"
b1000 $"
1?"
1C"
b111 B"
1V"
b1 h"
0u"
1}"
b100 x"
0$#
b11010001 Y"
b110 1#
1B#
b110100011111000000111101 '
b110100011111000000111101 $$
b1111000000111101 .
b1 d
0!"
1m"
1D#
0<"
1S"
0i"
1~"
0{"
14#
0e
1n"
1E#
0="
1T"
0t"
1##
1A#
0~
b1 f"
b100 /#
b110 ""
b111 @"
b0 g"
b1 w"
b10 0#
b0 c
b10001101 W"
b1110110000111101 ,
b1000100 X"
b10000000000 -
b100011011110110000111101 %
b100011011110110000111101 9$
b10001000000010000000000 &
b10001000000010000000000 8$
b101011100000111000111101 /$
b1000111110001000000000 .$
b101000111100000100111101 -$
b110000111100000000000 ,$
b101011011011100000000 +$
b101011011011100000000000 6$
b0 4$
b0 2$
b1010110110111000000000000 7$
b101011011011100000000 3$
1(
#26
0(
#27
0u"
0k"
b1 h"
1p"
0*
1V"
0F"
1Q"
0G"
b110 1#
0=#
b111 B"
1L"
0a"
09
0b"
0:
0|"
0)"
0["
0z"
1y"
b11010001 Y"
b100 x"
1.#
0&"
1%"
b110100011111000000111101 '
b110100011111000000111101 $$
b1111000000111101 .
b1000 $"
1?"
0}"
0*"
0!#
0&#
1+#
1?#
02"
07"
1<"
0~"
0{"
14#
01"
0'"
0"#
0'#
1,#
1@#
03"
08"
1="
0##
0A#
04"
b100 v"
b110 /#
b1000 ""
b0 w"
b0 0#
b0 #"
b11010001 W"
b1111000000111101 ,
b0 X"
b0 -
b110100011111000000111101 %
b110100011111000000111101 9$
b0 &
b0 8$
b110000011110000000111101 /$
b100000001000000000000 .$
b110010011110100000111101 -$
b10000000100000000000 ,$
b0 +$
b0 6$
b10101101101110000000000000000 7$
b0 3$
1(
#28
0(
#29
1u
1z
10"
15"
0j"
b0 h"
0p"
0y"
b0 x"
0.#
04#
0B#
03#
b0 Y"
b0 1#
0G#
0h
b110 d
0p
1&"
1:"
0%"
b1110111011011101 '
b1110111011011101 $$
b1110111011011101 .
b111 $"
0?"
1g
1f
1("
1'"
0m"
0+#
0?#
0D#
0m
17"
0<"
0I"
1t
1y
1/"
14"
1K"
0n"
0,#
0@#
0E#
0n
18"
0="
0J"
b110 c
b11 #"
b1 A"
b0 f"
b0 v"
b0 /#
b0 b
b100 ""
b110 @"
b10011011000000 -
b0 W"
b1100100000011101 ,
b10011011000000 &
b10011011000000 8$
b11111011011001 +$
b1001001100 *$
b1010110110111000 6$
b10101101101110 4$
b1010110110111 3$
b1001001101100001 /$
b101100100110000 .$
b1010110110111000 -$
b0 ,$
b1100100000011101 %
b1100100000011101 9$
b10011010 2$
b10101101101110000 7$
1(
1#
